…
read in SAS
===========

``` r
pulse_data = haven::read_sas("./data/public_pulse_data.sas7bdat")
```

Selecting!!
-----------

``` r
select(litters_data, group, litter_number) #first item:where the data selected from, and following with the column you want to selected
```

    ## # A tibble: 49 x 2
    ##    group litter_number  
    ##    <chr> <chr>          
    ##  1 Con7  #85            
    ##  2 Con7  #1/2/95/2      
    ##  3 Con7  #5/5/3/83/3-3  
    ##  4 Con7  #5/4/2/95/2    
    ##  5 Con7  #4/2/95/3-3    
    ##  6 Con7  #2/2/95/3-2    
    ##  7 Con7  #1/5/3/83/3-3/2
    ##  8 Con8  #3/83/3-3      
    ##  9 Con8  #2/95/3        
    ## 10 Con8  #3/5/2/2/95    
    ## # … with 39 more rows

``` r
select(litters_data, litter_number, gd0_weight, starts_with("pups")) #start_with phase helps us to select columns which the name starting with pups
```

    ## # A tibble: 49 x 5
    ##    litter_number   gd0_weight pups_born_alive pups_dead_birth pups_survive
    ##    <chr>                <dbl>           <dbl>           <dbl>        <dbl>
    ##  1 #85                   19.7               3               4            3
    ##  2 #1/2/95/2             27                 8               0            7
    ##  3 #5/5/3/83/3-3         26                 6               0            5
    ##  4 #5/4/2/95/2           28.5               5               1            4
    ##  5 #4/2/95/3-3           NA                 6               0            6
    ##  6 #2/2/95/3-2           NA                 6               0            4
    ##  7 #1/5/3/83/3-3/2       NA                 9               0            9
    ##  8 #3/83/3-3             NA                 9               1            8
    ##  9 #2/95/3               NA                 8               0            8
    ## 10 #3/5/2/2/95           28.5               8               0            8
    ## # … with 39 more rows

``` r
select(litters_data, litter_number, group, everything()) #take the litter_number and group first, and then anything else
```

    ## # A tibble: 49 x 8
    ##    litter_number group gd0_weight gd18_weight gd_of_birth pups_born_alive
    ##    <chr>         <chr>      <dbl>       <dbl>       <dbl>           <dbl>
    ##  1 #85           Con7        19.7        34.7          20               3
    ##  2 #1/2/95/2     Con7        27          42            19               8
    ##  3 #5/5/3/83/3-3 Con7        26          41.4          19               6
    ##  4 #5/4/2/95/2   Con7        28.5        44.1          19               5
    ##  5 #4/2/95/3-3   Con7        NA          NA            20               6
    ##  6 #2/2/95/3-2   Con7        NA          NA            20               6
    ##  7 #1/5/3/83/3-… Con7        NA          NA            20               9
    ##  8 #3/83/3-3     Con8        NA          NA            20               9
    ##  9 #2/95/3       Con8        NA          NA            20               8
    ## 10 #3/5/2/2/95   Con8        28.5        NA            20               8
    ## # … with 39 more rows, and 2 more variables: pups_dead_birth <dbl>,
    ## #   pups_survive <dbl>

``` r
select(litters_data, -group) #-group helps to exclude the column you dont want
```

    ## # A tibble: 49 x 7
    ##    litter_number gd0_weight gd18_weight gd_of_birth pups_born_alive
    ##    <chr>              <dbl>       <dbl>       <dbl>           <dbl>
    ##  1 #85                 19.7        34.7          20               3
    ##  2 #1/2/95/2           27          42            19               8
    ##  3 #5/5/3/83/3-3       26          41.4          19               6
    ##  4 #5/4/2/95/2         28.5        44.1          19               5
    ##  5 #4/2/95/3-3         NA          NA            20               6
    ##  6 #2/2/95/3-2         NA          NA            20               6
    ##  7 #1/5/3/83/3-…       NA          NA            20               9
    ##  8 #3/83/3-3           NA          NA            20               9
    ##  9 #2/95/3             NA          NA            20               8
    ## 10 #3/5/2/2/95         28.5        NA            20               8
    ## # … with 39 more rows, and 2 more variables: pups_dead_birth <dbl>,
    ## #   pups_survive <dbl>

``` r
select(litters_data, litter_number, gd0_weight:pups_born_alive) #includes every column starting with gd0_weight upto pup_born_alive
```

    ## # A tibble: 49 x 5
    ##    litter_number   gd0_weight gd18_weight gd_of_birth pups_born_alive
    ##    <chr>                <dbl>       <dbl>       <dbl>           <dbl>
    ##  1 #85                   19.7        34.7          20               3
    ##  2 #1/2/95/2             27          42            19               8
    ##  3 #5/5/3/83/3-3         26          41.4          19               6
    ##  4 #5/4/2/95/2           28.5        44.1          19               5
    ##  5 #4/2/95/3-3           NA          NA            20               6
    ##  6 #2/2/95/3-2           NA          NA            20               6
    ##  7 #1/5/3/83/3-3/2       NA          NA            20               9
    ##  8 #3/83/3-3             NA          NA            20               9
    ##  9 #2/95/3               NA          NA            20               8
    ## 10 #3/5/2/2/95           28.5        NA            20               8
    ## # … with 39 more rows

``` r
select(litters_data, GROUP = group, litter_number) #rename the "group" to "GROUP"
```

    ## # A tibble: 49 x 2
    ##    GROUP litter_number  
    ##    <chr> <chr>          
    ##  1 Con7  #85            
    ##  2 Con7  #1/2/95/2      
    ##  3 Con7  #5/5/3/83/3-3  
    ##  4 Con7  #5/4/2/95/2    
    ##  5 Con7  #4/2/95/3-3    
    ##  6 Con7  #2/2/95/3-2    
    ##  7 Con7  #1/5/3/83/3-3/2
    ##  8 Con8  #3/83/3-3      
    ##  9 Con8  #2/95/3        
    ## 10 Con8  #3/5/2/2/95    
    ## # … with 39 more rows

``` r
rename(litters_data, GROUP = group) #only rename the column, not doing the selection
```

    ## # A tibble: 49 x 8
    ##    GROUP litter_number gd0_weight gd18_weight gd_of_birth pups_born_alive
    ##    <chr> <chr>              <dbl>       <dbl>       <dbl>           <dbl>
    ##  1 Con7  #85                 19.7        34.7          20               3
    ##  2 Con7  #1/2/95/2           27          42            19               8
    ##  3 Con7  #5/5/3/83/3-3       26          41.4          19               6
    ##  4 Con7  #5/4/2/95/2         28.5        44.1          19               5
    ##  5 Con7  #4/2/95/3-3         NA          NA            20               6
    ##  6 Con7  #2/2/95/3-2         NA          NA            20               6
    ##  7 Con7  #1/5/3/83/3-…       NA          NA            20               9
    ##  8 Con8  #3/83/3-3           NA          NA            20               9
    ##  9 Con8  #2/95/3             NA          NA            20               8
    ## 10 Con8  #3/5/2/2/95         28.5        NA            20               8
    ## # … with 39 more rows, and 2 more variables: pups_dead_birth <dbl>,
    ## #   pups_survive <dbl>
…
``` r
filter(litters_data, gd_of_birth == 20)
```

    ## # A tibble: 32 x 8
    ##    group litter_number gd0_weight gd18_weight gd_of_birth pups_born_alive
    ##    <chr> <chr>              <dbl>       <dbl>       <dbl>           <dbl>
    ##  1 Con7  #85                 19.7        34.7          20               3
    ##  2 Con7  #4/2/95/3-3         NA          NA            20               6
    ##  3 Con7  #2/2/95/3-2         NA          NA            20               6
    ##  4 Con7  #1/5/3/83/3-…       NA          NA            20               9
    ##  5 Con8  #3/83/3-3           NA          NA            20               9
    ##  6 Con8  #2/95/3             NA          NA            20               8
    ##  7 Con8  #3/5/2/2/95         28.5        NA            20               8
    ##  8 Con8  #1/6/2/2/95-2       NA          NA            20               7
    ##  9 Con8  #3/5/3/83/3-…       NA          NA            20               8
    ## 10 Con8  #3/6/2/2/95-3       NA          NA            20               7
    ## # … with 22 more rows, and 2 more variables: pups_dead_birth <dbl>,
    ## #   pups_survive <dbl>
…
``` r
filter(litters_data, gd_of_birth >=20)
```

    ## # A tibble: 32 x 8
    ##    group litter_number gd0_weight gd18_weight gd_of_birth pups_born_alive
    ##    <chr> <chr>              <dbl>       <dbl>       <dbl>           <dbl>
    ##  1 Con7  #85                 19.7        34.7          20               3
    ##  2 Con7  #4/2/95/3-3         NA          NA            20               6
    ##  3 Con7  #2/2/95/3-2         NA          NA            20               6
    ##  4 Con7  #1/5/3/83/3-…       NA          NA            20               9
    ##  5 Con8  #3/83/3-3           NA          NA            20               9
    ##  6 Con8  #2/95/3             NA          NA            20               8
    ##  7 Con8  #3/5/2/2/95         28.5        NA            20               8
    ##  8 Con8  #1/6/2/2/95-2       NA          NA            20               7
    ##  9 Con8  #3/5/3/83/3-…       NA          NA            20               8
    ## 10 Con8  #3/6/2/2/95-3       NA          NA            20               7
    ## # … with 22 more rows, and 2 more variables: pups_dead_birth <dbl>,
    ## #   pups_survive <dbl>
…
``` r
filter(litters_data, gd0_weight + gd18_weight <70)
```

    ## # A tibble: 23 x 8
    ##    group litter_number gd0_weight gd18_weight gd_of_birth pups_born_alive
    ##    <chr> <chr>              <dbl>       <dbl>       <dbl>           <dbl>
    ##  1 Con7  #85                 19.7        34.7          20               3
    ##  2 Con7  #1/2/95/2           27          42            19               8
    ##  3 Con7  #5/5/3/83/3-3       26          41.4          19               6
    ##  4 Mod7  #59                 17          33.4          19               8
    ##  5 Mod7  #103                21.4        42.1          19               9
    ##  6 Mod7  #5/3/83/5-2         22.6        37            19               5
    ##  7 Mod7  #106                21.7        37.8          20               5
    ##  8 Mod7  #94/2               24.4        42.9          19               7
    ##  9 Mod7  #62                 19.5        35.9          19               7
    ## 10 Low7  #84/2               24.3        40.8          20               8
    ## # … with 13 more rows, and 2 more variables: pups_dead_birth <dbl>,
    ## #   pups_survive <dbl>

``` r
#about missing value
#do not do this: filtering only missing data and drop others
#filter(litters_data, is.na(gd0_weight))

#recommended way: drop the missing value and keep the data
drop_na(litters_data, gd0_weight)
```

    ## # A tibble: 34 x 8
    ##    group litter_number gd0_weight gd18_weight gd_of_birth pups_born_alive
    ##    <chr> <chr>              <dbl>       <dbl>       <dbl>           <dbl>
    ##  1 Con7  #85                 19.7        34.7          20               3
    ##  2 Con7  #1/2/95/2           27          42            19               8
    ##  3 Con7  #5/5/3/83/3-3       26          41.4          19               6
    ##  4 Con7  #5/4/2/95/2         28.5        44.1          19               5
    ##  5 Con8  #3/5/2/2/95         28.5        NA            20               8
    ##  6 Con8  #5/4/3/83/3         28          NA            19               9
    ##  7 Mod7  #59                 17          33.4          19               8
    ##  8 Mod7  #103                21.4        42.1          19               9
    ##  9 Mod7  #3/82/3-2           28          45.9          20               5
    ## 10 Mod7  #4/2/95/2           23.5        NA            19               9
    ## # … with 24 more rows, and 2 more variables: pups_dead_birth <dbl>,
    ## #   pups_survive <dbl>

Mutation
--------

``` r
mutate(litters_data, 
       wt_gain = gd18_weight + gd0_weight,
       group = str_to_lower(group)) 
```

    ## # A tibble: 49 x 9
    ##    group litter_number gd0_weight gd18_weight gd_of_birth pups_born_alive
    ##    <chr> <chr>              <dbl>       <dbl>       <dbl>           <dbl>
    ##  1 con7  #85                 19.7        34.7          20               3
    ##  2 con7  #1/2/95/2           27          42            19               8
    ##  3 con7  #5/5/3/83/3-3       26          41.4          19               6
    ##  4 con7  #5/4/2/95/2         28.5        44.1          19               5
    ##  5 con7  #4/2/95/3-3         NA          NA            20               6
    ##  6 con7  #2/2/95/3-2         NA          NA            20               6
    ##  7 con7  #1/5/3/83/3-…       NA          NA            20               9
    ##  8 con8  #3/83/3-3           NA          NA            20               9
    ##  9 con8  #2/95/3             NA          NA            20               8
    ## 10 con8  #3/5/2/2/95         28.5        NA            20               8
    ## # … with 39 more rows, and 3 more variables: pups_dead_birth <dbl>,
    ## #   pups_survive <dbl>, wt_gain <dbl>

``` r
#adding a column named wt_gain which mutate the gd18_weight and gd0_weight, and showing at the end of table (last column); str_to_lower: making element in "group" column lower case;
```

Arrange
-------

``` r
arrange(litters_data, pups_born_alive) #putting the dataset in order according to the number in pups_born_alive
```

    ## # A tibble: 49 x 8
    ##    group litter_number gd0_weight gd18_weight gd_of_birth pups_born_alive
    ##    <chr> <chr>              <dbl>       <dbl>       <dbl>           <dbl>
    ##  1 Con7  #85                 19.7        34.7          20               3
    ##  2 Low7  #111                25.5        44.6          20               3
    ##  3 Low8  #4/84               21.8        35.2          20               4
    ##  4 Con7  #5/4/2/95/2         28.5        44.1          19               5
    ##  5 Con8  #2/2/95/2           NA          NA            19               5
    ##  6 Mod7  #3/82/3-2           28          45.9          20               5
    ##  7 Mod7  #5/3/83/5-2         22.6        37            19               5
    ##  8 Mod7  #106                21.7        37.8          20               5
    ##  9 Con7  #5/5/3/83/3-3       26          41.4          19               6
    ## 10 Con7  #4/2/95/3-3         NA          NA            20               6
    ## # … with 39 more rows, and 2 more variables: pups_dead_birth <dbl>,
    ## #   pups_survive <dbl>

``` r
arrange(litters_data, desc(pups_born_alive)) #arrange the dataset with decreasing order
```

    ## # A tibble: 49 x 8
    ##    group litter_number gd0_weight gd18_weight gd_of_birth pups_born_alive
    ##    <chr> <chr>              <dbl>       <dbl>       <dbl>           <dbl>
    ##  1 Low7  #102                22.6        43.3          20              11
    ##  2 Mod8  #5/93               NA          41.1          20              11
    ##  3 Con7  #1/5/3/83/3-…       NA          NA            20               9
    ##  4 Con8  #3/83/3-3           NA          NA            20               9
    ##  5 Con8  #5/4/3/83/3         28          NA            19               9
    ##  6 Mod7  #103                21.4        42.1          19               9
    ##  7 Mod7  #4/2/95/2           23.5        NA            19               9
    ##  8 Mod7  #8/110/3-2          NA          NA            20               9
    ##  9 Low7  #107                22.6        42.4          20               9
    ## 10 Low7  #98                 23.8        43.8          20               9
    ## # … with 39 more rows, and 2 more variables: pups_dead_birth <dbl>,
    ## #   pups_survive <dbl>

``` r
arrange(litters_data, pups_born_alive, gd0_weight) #arrange the dataset based on two columns
```

    ## # A tibble: 49 x 8
    ##    group litter_number gd0_weight gd18_weight gd_of_birth pups_born_alive
    ##    <chr> <chr>              <dbl>       <dbl>       <dbl>           <dbl>
    ##  1 Con7  #85                 19.7        34.7          20               3
    ##  2 Low7  #111                25.5        44.6          20               3
    ##  3 Low8  #4/84               21.8        35.2          20               4
    ##  4 Mod7  #106                21.7        37.8          20               5
    ##  5 Mod7  #5/3/83/5-2         22.6        37            19               5
    ##  6 Mod7  #3/82/3-2           28          45.9          20               5
    ##  7 Con7  #5/4/2/95/2         28.5        44.1          19               5
    ##  8 Con8  #2/2/95/2           NA          NA            19               5
    ##  9 Low8  #99                 23.5        39            20               6
    ## 10 Low7  #112                23.9        40.5          19               6
    ## # … with 39 more rows, and 2 more variables: pups_dead_birth <dbl>,
    ## #   pups_survive <dbl>
